{
  "$schema": "https://themost-framework.github.io/themost/models/2018/2/schema.json",
  "@id": "https://universis.io/schemas/EducationalCredentialsValidateResult",
  "name": "EducationalCredentialsValidateResult",
  "title": "EducationalCredentialsValidateResults",
  "hidden": false,
  "version": "1.0",
  "fields": [
    {
      "@id": "https://themost.io/schemas/id",
      "name": "id",
      "title": "id",
      "description": "The identifier of the item.",
      "type": "Counter",
      "primary": true
    },
    {
      "name": "action",
      "title": "Validate action",
      "type": "EducationalCredentialsValidateAction",
      "nullable": false,
      "editable": false
    },
    {
      "name": "student",
      "type": "Student",
      "nullable": false,
      "editable": false
    },
    {
      "name": "grade",
      "type": "Number"
    },
    {
      "name": "result",
      "type": "Boolean",
      "nullable": false
    },
    {
      "@id": "https://themost.io/schemas/dateCreated",
      "name": "dateCreated",
      "title": "dateCreated",
      "description": "The date on which this item was created.",
      "type": "DateTime",
      "readonly": true,
      "value": "javascript:return new Date();"
    },
    {
      "@id": "https://themost.io/schemas/dateModified",
      "name": "dateModified",
      "title": "dateModified",
      "description": "The date on which this item was most recently modified.",
      "type": "DateTime",
      "readonly": true,
      "value": "javascript:return (new Date());",
      "calculation": "javascript:return (new Date());"
    },
    {
      "@id": "https://themost.io/schemas/createdBy",
      "name": "createdBy",
      "title": "createdBy",
      "description": "Created by user.",
      "type": "User",
      "readonly": true,
      "value": "javascript:return this.user();"
    },
    {
      "@id": "https://themost.io/schemas/modifiedBy",
      "name": "modifiedBy",
      "title": "modifiedBy",
      "description": "Last modified by user.",
      "type": "User",
      "readonly": true,
      "value": "javascript:return this.user();",
      "calculation": "javascript:return this.user();"
    }
  ],
  "privileges": [
    {
      "mask": 15,
      "type": "global",
      "account": "Administrators"
    },
    {
      "mask": 15,
      "type": "global"
    },
    {
      "mask": 15,
      "type": "self",
      "account": "Registrar",
      "filter": "student/department eq departments()"
    }
  ]
}
