{
    "$schema": "https://themost-framework.github.io/themost/models/2018/2/schema.json",
    "@id": "https://universis.io/schemas/StudentEducationalCredentials",
    "name": "StudentEducationalCredentials",
    "title": "StudentEducationalCredentials",
    "hidden": false,
    "sealed": false,
    "version": "1.1",
    "fields": [
      {
        "name": "id",
        "type": "Guid",
        "nullable": false,
        "primary": true,
        "value": "javascript:return this.newGuid();"
      },
      {
        "name": "educationalCredentials",
        "type": "EducationalOccupationalCredentials",
        "many": false,
        "nullable": false,
        "editable": false
      },
      {
        "name": "student",
        "type": "Student",
        "nullable": false,
        "editable": false
      },
      {
        "name": "grade",
        "type": "Number",
        "nullable": true
      },
      {
        "name": "dateIssued",
        "title": "dateIssued",
        "description": "The date on which this item has been issued.",
        "type": "DateTime",
        "nullable": true,
        "value": "javascript:return new Date();"
      },
      {
        "@id": "https://themost.io/schemas/dateCreated",
        "name": "dateCreated",
        "title": "dateCreated",
        "description": "The date on which this item was created.",
        "type": "DateTime",
        "readonly": true,
        "value": "javascript:return new Date();"
      },
      {
        "@id": "https://themost.io/schemas/dateModified",
        "name": "dateModified",
        "title": "dateModified",
        "description": "The date on which this item was most recently modified.",
        "type": "DateTime",
        "readonly": true,
        "value": "javascript:return (new Date());",
        "calculation": "javascript:return (new Date());"
      }
    ],
    "constraints": [
      {
        "type": "unique",
        "fields": [
          "student",
          "educationalCredentials"
        ]
      }
    ],
    "eventListeners": [
      {
        "type": "@themost/data/previous-state-listener"
      }
    ],
    "privileges": [
      {
        "mask": 1,
        "type": "self",
        "filter": "student eq student()",
        "account": "Students"
      },
      {
        "mask": 15,
        "type": "global"
      },
      {
        "mask": 15,
        "type": "global",
        "account": "Administrators"
      },
      {
        "mask": 15,
        "type": "self",
        "account": "Registrar",
        "filter": "student/department eq departments()"
      }
    ]
  }
  